<?xml version="1.0" encoding="utf-8"?>
<!-- Generator: Adobe Illustrator 23.0.3, SVG Export Plug-In . SVG Version: 6.00 Build 0)  -->
<svg version="1.1" id="Layer_1" xmlns="http://www.w3.org/2000/svg" xmlns:xlink="http://www.w3.org/1999/xlink" x="0px" y="0px"
	 viewBox="0 0 24 24" style="enable-background:new 0 0 24 24;" xml:space="preserve">
<style type="text/css">
	.st0{fill:none;}
</style>
<path class="st0" d="M0,0h24v24H0V0z"/>
<path d="M6,5h12c0.6,0,1,0.5,1,1v12c0,0.6-0.5,1-1,1h-5c-0.6,0-1,0.5-1,1s0.4,1,1,1h6c1.1,0,2-0.9,2-2V5c0-1.1-0.9-2-2-2H5
	C3.9,3,3,3.9,3,5v6c0,0.6,0.5,1,1,1s1-0.4,1-1V6C5,5.5,5.5,5,6,5z M10,20c0-0.6-0.4-1-1-1H6.4l9.1-9.1c0.4-0.4,0.4-1,0-1.4
	s-1-0.4-1.4,0L5,17.6V15c0-0.6-0.5-1-1-1s-1,0.4-1,1v6h6C9.6,21,10,20.5,10,20z"/>
</svg>
